EESchema Schematic File Version 2
LIBS:power
LIBS:device
LIBS:transistors
LIBS:conn
LIBS:linear
LIBS:regul
LIBS:74xx
LIBS:cmos4000
LIBS:adc-dac
LIBS:memory
LIBS:xilinx
LIBS:microcontrollers
LIBS:dsp
LIBS:microchip
LIBS:analog_switches
LIBS:motorola
LIBS:texas
LIBS:intel
LIBS:audio
LIBS:interface
LIBS:digital-audio
LIBS:philips
LIBS:display
LIBS:cypress
LIBS:siliconi
LIBS:opto
LIBS:atmel
LIBS:contrib
LIBS:valves
LIBS:warsztaty
LIBS:ModulAS5040-cache
EELAYER 25 0
EELAYER END
$Descr A4 11693 8268
encoding utf-8
Sheet 1 1
Title ""
Date ""
Rev ""
Comp ""
Comment1 ""
Comment2 ""
Comment3 ""
Comment4 ""
$EndDescr
$Comp
L AS5040 U1
U 1 1 581B9E09
P 5775 3725
F 0 "U1" H 5425 3125 50  0000 C CNN
F 1 "AS5040" H 5425 4325 50  0000 C CNN
F 2 "Housings_SSOP:SSOP-16_5.3x6.2mm_Pitch0.65mm" H 5775 3725 50  0001 C CNN
F 3 "" H 5775 3725 50  0001 C CNN
	1    5775 3725
	1    0    0    -1  
$EndComp
$Comp
L CONN_01X05 P1
U 1 1 581B9E0A
P 3675 4300
F 0 "P1" H 3675 4600 50  0000 C CNN
F 1 "CONN_01X05" V 3775 4300 50  0000 C CNN
F 2 "Pin_Headers:Pin_Header_Straight_1x05" H 3675 4300 50  0001 C CNN
F 3 "" H 3675 4300 50  0000 C CNN
	1    3675 4300
	-1   0    0    1   
$EndComp
NoConn ~ 5025 3775
NoConn ~ 6525 4075
NoConn ~ 6525 3975
NoConn ~ 6525 3775
NoConn ~ 6525 3675
NoConn ~ 6525 3575
$Comp
L C C1
U 1 1 581B9E0B
P 4575 4325
F 0 "C1" H 4600 4425 50  0000 L CNN
F 1 "100n" H 4600 4225 50  0000 L CNN
F 2 "Capacitors_SMD:C_0805" H 4613 4175 50  0001 C CNN
F 3 "" H 4575 4325 50  0000 C CNN
	1    4575 4325
	1    0    0    -1  
$EndComp
Wire Wire Line
	5025 3875 4375 3875
Wire Wire Line
	4375 3875 4375 4300
Wire Wire Line
	4375 4300 3875 4300
Wire Wire Line
	5025 3675 4275 3675
Wire Wire Line
	4275 3675 4275 4200
Wire Wire Line
	4275 4200 3875 4200
Wire Wire Line
	5025 3575 4175 3575
Wire Wire Line
	4175 3575 4175 4100
Wire Wire Line
	4175 4100 3875 4100
Wire Wire Line
	6525 3375 6725 3375
Wire Wire Line
	6725 3475 6525 3475
Connection ~ 6725 3475
Wire Wire Line
	6525 3875 6650 3875
Wire Wire Line
	6650 3875 6650 4400
Wire Wire Line
	6650 4400 4975 4400
Wire Wire Line
	4975 4400 4975 4075
Connection ~ 4975 4075
$Comp
L R R2
U 1 1 581B9E0C
P 5425 2825
F 0 "R2" V 5505 2825 50  0000 C CNN
F 1 "10k" V 5425 2825 50  0000 C CNN
F 2 "Resistors_SMD:R_0805_HandSoldering" V 5355 2825 50  0001 C CNN
F 3 "" H 5425 2825 50  0000 C CNN
	1    5425 2825
	0    1    1    0   
$EndComp
Wire Wire Line
	4775 2825 5275 2825
Connection ~ 6725 3375
Wire Wire Line
	5575 2825 6725 2825
Connection ~ 6725 2825
Wire Wire Line
	6725 2825 6725 4500
Wire Wire Line
	4775 3475 5025 3475
Wire Wire Line
	4775 2825 4775 3475
Wire Wire Line
	4625 3375 5025 3375
Connection ~ 4775 3375
$Comp
L R R1
U 1 1 581B9E0D
P 4475 3375
F 0 "R1" V 4555 3375 50  0000 C CNN
F 1 "220" V 4475 3375 50  0000 C CNN
F 2 "Resistors_SMD:R_0805_HandSoldering" V 4405 3375 50  0001 C CNN
F 3 "" H 4475 3375 50  0000 C CNN
	1    4475 3375
	0    1    1    0   
$EndComp
$Comp
L D D1
U 1 1 581B9E0E
P 3975 3825
F 0 "D1" H 3975 3925 50  0000 C CNN
F 1 "D" H 3975 3725 50  0000 C CNN
F 2 "Diodes_SMD:D_0805" H 3975 3825 50  0001 C CNN
F 3 "" H 3975 3825 50  0000 C CNN
	1    3975 3825
	0    -1   -1   0   
$EndComp
Wire Wire Line
	4325 3375 3975 3375
Wire Wire Line
	3975 3375 3975 3675
Wire Wire Line
	3975 3975 3975 4500
Text Notes 3300 3275 0    60   ~ 0
Dioda 3mm 20mA\nStan HIGH na linii gdy \nmagnes jest odpowiednio\nustawiony (wtedy oba wejscia \nMagIN i DEC są na LOW)
Wire Wire Line
	4575 4475 4575 4500
Connection ~ 4575 4500
Wire Wire Line
	4825 4175 4825 4075
Connection ~ 4825 4075
Wire Wire Line
	4825 4475 4825 4500
Connection ~ 4825 4500
$Comp
L CP C2
U 1 1 581BBCE3
P 4825 4325
F 0 "C2" H 4850 4425 50  0000 L CNN
F 1 "1u" H 4850 4225 50  0000 L CNN
F 2 "Capacitors_Tantalum_SMD:TantalC_SizeA_EIA-3216_HandSoldering" H 4863 4175 50  0001 C CNN
F 3 "" H 4825 4325 50  0000 C CNN
	1    4825 4325
	1    0    0    1   
$EndComp
Wire Wire Line
	4275 4400 4275 4500
Wire Wire Line
	3875 4400 4275 4400
Connection ~ 3975 4500
Wire Wire Line
	4050 4500 3875 4500
Wire Wire Line
	4275 4500 6725 4500
$Comp
L GND #PWR01
U 1 1 5823C4B6
P 4450 4075
F 0 "#PWR01" H 4450 3825 50  0001 C CNN
F 1 "GND" H 4450 3925 50  0000 C CNN
F 2 "" H 4450 4075 50  0000 C CNN
F 3 "" H 4450 4075 50  0000 C CNN
	1    4450 4075
	1    0    0    -1  
$EndComp
Wire Wire Line
	4450 4075 5025 4075
Wire Wire Line
	5025 3975 4575 3975
Wire Wire Line
	4575 3975 4575 4175
Connection ~ 4575 4075
$Comp
L GND #PWR02
U 1 1 5823C6FB
P 4050 4500
F 0 "#PWR02" H 4050 4250 50  0001 C CNN
F 1 "GND" H 4050 4350 50  0000 C CNN
F 2 "" H 4050 4500 50  0000 C CNN
F 3 "" H 4050 4500 50  0000 C CNN
	1    4050 4500
	1    0    0    -1  
$EndComp
$Comp
L GND #PWR03
U 1 1 5823C7C9
P 7075 3250
F 0 "#PWR03" H 7075 3000 50  0001 C CNN
F 1 "GND" H 7075 3100 50  0000 C CNN
F 2 "" H 7075 3250 50  0000 C CNN
F 3 "" H 7075 3250 50  0000 C CNN
	1    7075 3250
	1    0    0    -1  
$EndComp
$Comp
L PWR_FLAG #FLG04
U 1 1 5823C87E
P 7075 3175
F 0 "#FLG04" H 7075 3270 50  0001 C CNN
F 1 "PWR_FLAG" H 7075 3355 50  0000 C CNN
F 2 "" H 7075 3175 50  0000 C CNN
F 3 "" H 7075 3175 50  0000 C CNN
	1    7075 3175
	1    0    0    -1  
$EndComp
Wire Wire Line
	7075 3175 7075 3250
$EndSCHEMATC
