(export (version D)
  (design
    (source C:\Users\asus\Desktop\MicroMouse\ModulAS5040\ModulAS5040.sch)
    (date "2016-11-10 01:51:41")
    (tool "Eeschema 4.0.4-stable")
    (sheet (number 1) (name /) (tstamps /)
      (title_block
        (title)
        (company)
        (rev)
        (date)
        (source ModulAS5040.sch)
        (comment (number 1) (value ""))
        (comment (number 2) (value ""))
        (comment (number 3) (value ""))
        (comment (number 4) (value "")))))
  (components
    (comp (ref U1)
      (value AS5040)
      (footprint Housings_SSOP:SSOP-16_5.3x6.2mm_Pitch0.65mm)
      (libsource (lib warsztaty) (part AS5040))
      (sheetpath (names /) (tstamps /))
      (tstamp 581B9E09))
    (comp (ref P1)
      (value CONN_01X05)
      (footprint Pin_Headers:Pin_Header_Straight_1x05)
      (libsource (lib conn) (part CONN_01X05))
      (sheetpath (names /) (tstamps /))
      (tstamp 581B9E0A))
    (comp (ref C1)
      (value 100n)
      (footprint Capacitors_SMD:C_0805)
      (libsource (lib device) (part C))
      (sheetpath (names /) (tstamps /))
      (tstamp 581B9E0B))
    (comp (ref R2)
      (value 10k)
      (footprint Resistors_SMD:R_0805_HandSoldering)
      (libsource (lib device) (part R))
      (sheetpath (names /) (tstamps /))
      (tstamp 581B9E0C))
    (comp (ref R1)
      (value 220)
      (footprint Resistors_SMD:R_0805_HandSoldering)
      (libsource (lib device) (part R))
      (sheetpath (names /) (tstamps /))
      (tstamp 581B9E0D))
    (comp (ref D1)
      (value D)
      (footprint Diodes_SMD:D_0805)
      (libsource (lib device) (part D))
      (sheetpath (names /) (tstamps /))
      (tstamp 581B9E0E))
    (comp (ref C2)
      (value 1u)
      (footprint Capacitors_Tantalum_SMD:TantalC_SizeA_EIA-3216_HandSoldering)
      (libsource (lib device) (part CP))
      (sheetpath (names /) (tstamps /))
      (tstamp 581BBCE3)))
  (libparts
    (libpart (lib warsztaty) (part AS5040)
      (aliases
        (alias as5040))
      (fields
        (field (name Reference) U)
        (field (name Value) AS5040))
      (pins
        (pin (num 1) (name MagINCn) (type input))
        (pin (num 2) (name MagDECn) (type input))
        (pin (num 3) (name A_LSB_U) (type input))
        (pin (num 4) (name B_Dir_V) (type input))
        (pin (num 5) (name NC) (type input))
        (pin (num 6) (name Index_W) (type input))
        (pin (num 7) (name VSS) (type input))
        (pin (num 8) (name Prog) (type input))
        (pin (num 9) (name DO) (type input))
        (pin (num 10) (name CLK) (type input))
        (pin (num 11) (name CSn) (type input))
        (pin (num 12) (name PWM_LSB) (type input))
        (pin (num 13) (name NC) (type input))
        (pin (num 14) (name NC) (type input))
        (pin (num 15) (name VDD3V3) (type input))
        (pin (num 16) (name VDD5V) (type input))))
    (libpart (lib device) (part C)
      (description "Unpolarized capacitor")
      (footprints
        (fp C?)
        (fp C_????_*)
        (fp C_????)
        (fp SMD*_c)
        (fp Capacitor*))
      (fields
        (field (name Reference) C)
        (field (name Value) C))
      (pins
        (pin (num 1) (name ~) (type passive))
        (pin (num 2) (name ~) (type passive))))
    (libpart (lib conn) (part CONN_01X05)
      (description "Connector, single row, 01x05")
      (footprints
        (fp Pin_Header_Straight_1X05)
        (fp Pin_Header_Angled_1X05)
        (fp Socket_Strip_Straight_1X05)
        (fp Socket_Strip_Angled_1X05))
      (fields
        (field (name Reference) P)
        (field (name Value) CONN_01X05))
      (pins
        (pin (num 1) (name P1) (type passive))
        (pin (num 2) (name P2) (type passive))
        (pin (num 3) (name P3) (type passive))
        (pin (num 4) (name P4) (type passive))
        (pin (num 5) (name P5) (type passive))))
    (libpart (lib device) (part CP)
      (description "Polarised capacitor")
      (footprints
        (fp CP*)
        (fp C_Axial*)
        (fp C_Radial*)
        (fp TantalC*)
        (fp C*elec)
        (fp c_elec*)
        (fp SMD*_Pol))
      (fields
        (field (name Reference) C)
        (field (name Value) CP))
      (pins
        (pin (num 1) (name ~) (type passive))
        (pin (num 2) (name ~) (type passive))))
    (libpart (lib device) (part D)
      (description Diode)
      (footprints
        (fp Diode_*)
        (fp D-Pak_TO252AA)
        (fp *SingleDiode)
        (fp *_Diode_*)
        (fp *SingleDiode*))
      (fields
        (field (name Reference) D)
        (field (name Value) D))
      (pins
        (pin (num 1) (name K) (type passive))
        (pin (num 2) (name A) (type passive))))
    (libpart (lib device) (part R)
      (description Resistor)
      (footprints
        (fp R_*)
        (fp Resistor_*))
      (fields
        (field (name Reference) R)
        (field (name Value) R))
      (pins
        (pin (num 1) (name ~) (type passive))
        (pin (num 2) (name ~) (type passive)))))
  (libraries
    (library (logical device)
      (uri "C:\\Program Files\\KiCad\\share\\kicad\\library\\device.lib"))
    (library (logical conn)
      (uri "C:\\Program Files\\KiCad\\share\\kicad\\library\\conn.lib"))
    (library (logical warsztaty)
      (uri "C:\\Users\\asus\\Desktop\\warsztaty\\libsy i footprinty\\lib\\warsztaty.lib")))
  (nets
    (net (code 1) (name "Net-(D1-Pad2)")
      (node (ref D1) (pin 2))
      (node (ref R1) (pin 2)))
    (net (code 2) (name "Net-(R1-Pad1)")
      (node (ref U1) (pin 1))
      (node (ref R2) (pin 2))
      (node (ref R1) (pin 1))
      (node (ref U1) (pin 2)))
    (net (code 3) (name GND)
      (node (ref C2) (pin 2))
      (node (ref P1) (pin 1))
      (node (ref U1) (pin 11))
      (node (ref U1) (pin 8))
      (node (ref U1) (pin 7))
      (node (ref D1) (pin 1))
      (node (ref C1) (pin 1)))
    (net (code 4) (name "Net-(U1-Pad12)")
      (node (ref U1) (pin 12)))
    (net (code 5) (name "Net-(U1-Pad5)")
      (node (ref U1) (pin 5)))
    (net (code 6) (name "Net-(P1-Pad5)")
      (node (ref P1) (pin 5))
      (node (ref U1) (pin 3)))
    (net (code 7) (name "Net-(P1-Pad3)")
      (node (ref U1) (pin 6))
      (node (ref P1) (pin 3)))
    (net (code 8) (name "Net-(U1-Pad14)")
      (node (ref U1) (pin 14)))
    (net (code 9) (name "Net-(U1-Pad13)")
      (node (ref U1) (pin 13)))
    (net (code 10) (name "Net-(U1-Pad9)")
      (node (ref U1) (pin 9)))
    (net (code 11) (name "Net-(U1-Pad10)")
      (node (ref U1) (pin 10)))
    (net (code 12) (name "Net-(P1-Pad4)")
      (node (ref U1) (pin 4))
      (node (ref P1) (pin 4)))
    (net (code 13) (name "Net-(C1-Pad2)")
      (node (ref C1) (pin 2))
      (node (ref R2) (pin 1))
      (node (ref C2) (pin 1))
      (node (ref P1) (pin 2))
      (node (ref U1) (pin 16))
      (node (ref U1) (pin 15)))))