EESchema Schematic File Version 2
LIBS:power
LIBS:device
LIBS:transistors
LIBS:conn
LIBS:linear
LIBS:regul
LIBS:74xx
LIBS:cmos4000
LIBS:adc-dac
LIBS:memory
LIBS:xilinx
LIBS:microcontrollers
LIBS:dsp
LIBS:microchip
LIBS:analog_switches
LIBS:motorola
LIBS:texas
LIBS:intel
LIBS:audio
LIBS:interface
LIBS:digital-audio
LIBS:philips
LIBS:display
LIBS:cypress
LIBS:siliconi
LIBS:opto
LIBS:atmel
LIBS:contrib
LIBS:valves
LIBS:stm32
LIBS:warsztaty
LIBS:stm32_2
LIBS:MicroMouse-cache
EELAYER 25 0
EELAYER END
$Descr User 21654 17717
encoding utf-8
Sheet 1 1
Title ""
Date ""
Rev ""
Comp ""
Comment1 ""
Comment2 ""
Comment3 ""
Comment4 ""
$EndDescr
$Comp
L C C9
U 1 1 58123D17
P 2200 10575
F 0 "C9" H 2225 10675 50  0000 L CNN
F 1 "100n" H 2225 10475 50  0000 L CNN
F 2 "Capacitors_SMD:C_0805_HandSoldering" H 2238 10425 50  0001 C CNN
F 3 "" H 2200 10575 50  0000 C CNN
	1    2200 10575
	0    1    1    0   
$EndComp
$Comp
L CP C8
U 1 1 58123EE8
P 2200 10250
F 0 "C8" H 2225 10350 50  0000 L CNN
F 1 "4,7uF" H 2225 10150 50  0000 L CNN
F 2 "Capacitors_Tantalum_SMD:TantalC_SizeA_EIA-3216_HandSoldering" H 2238 10100 50  0001 C CNN
F 3 "" H 2200 10250 50  0000 C CNN
	1    2200 10250
	0    1    1    0   
$EndComp
$Comp
L GND #PWR01
U 1 1 58124887
P 1825 10450
F 0 "#PWR01" H 1825 10200 50  0001 C CNN
F 1 "GND" H 1825 10300 50  0000 C CNN
F 2 "" H 1825 10450 50  0000 C CNN
F 3 "" H 1825 10450 50  0000 C CNN
	1    1825 10450
	1    0    0    -1  
$EndComp
$Comp
L GND #PWR02
U 1 1 58124B25
P 3775 8850
F 0 "#PWR02" H 3775 8600 50  0001 C CNN
F 1 "GND" H 3775 8700 50  0000 C CNN
F 2 "" H 3775 8850 50  0000 C CNN
F 3 "" H 3775 8850 50  0000 C CNN
	1    3775 8850
	1    0    0    -1  
$EndComp
$Comp
L CP C11
U 1 1 58125EFB
P 2825 10325
F 0 "C11" H 2850 10425 50  0000 L CNN
F 1 "1u" H 2850 10225 50  0000 L CNN
F 2 "Capacitors_Tantalum_SMD:TantalC_SizeA_EIA-3216_HandSoldering" H 2863 10175 50  0001 C CNN
F 3 "" H 2825 10325 50  0000 C CNN
	1    2825 10325
	0    -1   -1   0   
$EndComp
$Comp
L C C12
U 1 1 58125FAB
P 2825 10625
F 0 "C12" H 2850 10725 50  0000 L CNN
F 1 "100n" H 2850 10525 50  0000 L CNN
F 2 "Capacitors_SMD:C_0805_HandSoldering" H 2863 10475 50  0001 C CNN
F 3 "" H 2825 10625 50  0000 C CNN
	1    2825 10625
	0    -1   -1   0   
$EndComp
$Comp
L GND #PWR03
U 1 1 5812600C
P 3175 10475
F 0 "#PWR03" H 3175 10225 50  0001 C CNN
F 1 "GND" H 3175 10325 50  0000 C CNN
F 2 "" H 3175 10475 50  0000 C CNN
F 3 "" H 3175 10475 50  0000 C CNN
	1    3175 10475
	1    0    0    -1  
$EndComp
$Comp
L +3.3V #PWR04
U 1 1 58126222
P 2350 10075
F 0 "#PWR04" H 2350 9925 50  0001 C CNN
F 1 "+3.3V" H 2350 10215 50  0000 C CNN
F 2 "" H 2350 10075 50  0000 C CNN
F 3 "" H 2350 10075 50  0000 C CNN
	1    2350 10075
	1    0    0    -1  
$EndComp
$Comp
L +3.3V #PWR05
U 1 1 58126258
P 2675 10075
F 0 "#PWR05" H 2675 9925 50  0001 C CNN
F 1 "+3.3V" H 2675 10215 50  0000 C CNN
F 2 "" H 2675 10075 50  0000 C CNN
F 3 "" H 2675 10075 50  0000 C CNN
	1    2675 10075
	1    0    0    -1  
$EndComp
$Comp
L C C7
U 1 1 58126A6E
P 1850 11300
F 0 "C7" H 1875 11400 50  0000 L CNN
F 1 "100n" H 1875 11200 50  0000 L CNN
F 2 "Capacitors_SMD:C_0805_HandSoldering" H 1888 11150 50  0001 C CNN
F 3 "" H 1850 11300 50  0000 C CNN
	1    1850 11300
	0    1    1    0   
$EndComp
$Comp
L GND #PWR06
U 1 1 58126B20
P 1625 11575
F 0 "#PWR06" H 1625 11325 50  0001 C CNN
F 1 "GND" H 1625 11425 50  0000 C CNN
F 2 "" H 1625 11575 50  0000 C CNN
F 3 "" H 1625 11575 50  0000 C CNN
	1    1625 11575
	1    0    0    -1  
$EndComp
$Comp
L +3.3V #PWR07
U 1 1 58126C35
P 2100 11200
F 0 "#PWR07" H 2100 11050 50  0001 C CNN
F 1 "+3.3V" H 2100 11340 50  0000 C CNN
F 2 "" H 2100 11200 50  0000 C CNN
F 3 "" H 2100 11200 50  0000 C CNN
	1    2100 11200
	1    0    0    -1  
$EndComp
$Comp
L GND #PWR08
U 1 1 58127228
P 15025 9750
F 0 "#PWR08" H 15025 9500 50  0001 C CNN
F 1 "GND" H 15025 9600 50  0000 C CNN
F 2 "" H 15025 9750 50  0000 C CNN
F 3 "" H 15025 9750 50  0000 C CNN
	1    15025 9750
	1    0    0    -1  
$EndComp
$Comp
L GND #PWR09
U 1 1 581295D8
P 18125 6450
F 0 "#PWR09" H 18125 6200 50  0001 C CNN
F 1 "GND" H 18125 6300 50  0000 C CNN
F 2 "" H 18125 6450 50  0000 C CNN
F 3 "" H 18125 6450 50  0000 C CNN
	1    18125 6450
	-1   0    0    1   
$EndComp
$Comp
L C C10
U 1 1 5812A0DA
P 2600 8975
F 0 "C10" H 2625 9075 50  0000 L CNN
F 1 "100n" H 2625 8875 50  0000 L CNN
F 2 "Capacitors_SMD:C_0805_HandSoldering" H 2638 8825 50  0001 C CNN
F 3 "" H 2600 8975 50  0000 C CNN
	1    2600 8975
	1    0    0    -1  
$EndComp
$Comp
L SW_PUSH SW1
U 1 1 5812A230
P 2250 8975
F 0 "SW1" H 2400 9085 50  0000 C CNN
F 1 "SW_PUSH" H 2250 8895 50  0000 C CNN
F 2 "Buttons_Switches_THT:SW_PUSH_6mm" H 2250 8975 50  0001 C CNN
F 3 "" H 2250 8975 50  0000 C CNN
	1    2250 8975
	0    -1   -1   0   
$EndComp
$Comp
L GND #PWR010
U 1 1 5812A406
P 2450 9325
F 0 "#PWR010" H 2450 9075 50  0001 C CNN
F 1 "GND" H 2450 9175 50  0000 C CNN
F 2 "" H 2450 9325 50  0000 C CNN
F 3 "" H 2450 9325 50  0000 C CNN
	1    2450 9325
	1    0    0    -1  
$EndComp
$Comp
L CONN_01X03 P10
U 1 1 5812B2DF
P 18500 6550
F 0 "P10" H 18500 6750 50  0000 C CNN
F 1 "CONN_01X03" V 18600 6550 50  0000 C CNN
F 2 "Pin_Headers:Pin_Header_Straight_1x03" H 18500 6550 50  0001 C CNN
F 3 "" H 18500 6550 50  0000 C CNN
	1    18500 6550
	1    0    0    -1  
$EndComp
$Comp
L LM1117-3.3 U3
U 1 1 5812BA20
P 5900 3125
F 0 "U3" H 6000 2875 50  0000 C CNN
F 1 "LM1117-3.3" H 5900 3375 50  0000 C CNN
F 2 "TO_SOT_Packages_SMD:TO-252-2Lead" H 5900 3125 50  0001 C CNN
F 3 "" H 5900 3125 50  0000 C CNN
	1    5900 3125
	1    0    0    -1  
$EndComp
$Comp
L GND #PWR011
U 1 1 5812DBB6
P 5900 3800
F 0 "#PWR011" H 5900 3550 50  0001 C CNN
F 1 "GND" H 5900 3650 50  0000 C CNN
F 2 "" H 5900 3800 50  0000 C CNN
F 3 "" H 5900 3800 50  0000 C CNN
	1    5900 3800
	1    0    0    -1  
$EndComp
$Comp
L +3.3V #PWR012
U 1 1 5812DE25
P 7450 3025
F 0 "#PWR012" H 7450 2875 50  0001 C CNN
F 1 "+3.3V" H 7450 3165 50  0000 C CNN
F 2 "" H 7450 3025 50  0000 C CNN
F 3 "" H 7450 3025 50  0000 C CNN
	1    7450 3025
	1    0    0    -1  
$EndComp
$Comp
L +5V #PWR013
U 1 1 5812DF97
P 4450 3075
F 0 "#PWR013" H 4450 2925 50  0001 C CNN
F 1 "+5V" H 4450 3215 50  0000 C CNN
F 2 "" H 4450 3075 50  0000 C CNN
F 3 "" H 4450 3075 50  0000 C CNN
	1    4450 3075
	1    0    0    -1  
$EndComp
$Comp
L +5V #PWR014
U 1 1 5812E174
P 3800 3075
F 0 "#PWR014" H 3800 2925 50  0001 C CNN
F 1 "+5V" H 3800 3215 50  0000 C CNN
F 2 "" H 3800 3075 50  0000 C CNN
F 3 "" H 3800 3075 50  0000 C CNN
	1    3800 3075
	1    0    0    -1  
$EndComp
$Comp
L LM1117-5.0 U1
U 1 1 5812E23A
P 2575 3200
F 0 "U1" H 2675 2950 50  0000 C CNN
F 1 "LM1117-5.0" H 2575 3450 50  0000 C CNN
F 2 "warsztaty:LM1117_TO-220" H 2575 3200 50  0001 C CNN
F 3 "" H 2575 3200 50  0000 C CNN
	1    2575 3200
	1    0    0    -1  
$EndComp
$Comp
L C C13
U 1 1 5812F105
P 3200 3350
F 0 "C13" H 3225 3450 50  0000 L CNN
F 1 "100n" H 3225 3250 50  0000 L CNN
F 2 "Capacitors_SMD:C_0805_HandSoldering" H 3238 3200 50  0001 C CNN
F 3 "" H 3200 3350 50  0000 C CNN
	1    3200 3350
	1    0    0    -1  
$EndComp
$Comp
L C C6
U 1 1 5812F4BF
P 1850 3350
F 0 "C6" H 1875 3450 50  0000 L CNN
F 1 "330n" H 1875 3250 50  0000 L CNN
F 2 "Capacitors_SMD:C_0805_HandSoldering" H 1888 3200 50  0001 C CNN
F 3 "" H 1850 3350 50  0000 C CNN
	1    1850 3350
	1    0    0    -1  
$EndComp
$Comp
L VCC #PWR015
U 1 1 5812F6DE
P 1275 3075
F 0 "#PWR015" H 1275 2925 50  0001 C CNN
F 1 "VCC" H 1275 3225 50  0000 C CNN
F 2 "" H 1275 3075 50  0000 C CNN
F 3 "" H 1275 3075 50  0000 C CNN
	1    1275 3075
	1    0    0    -1  
$EndComp
$Comp
L GND #PWR016
U 1 1 5812FEB0
P 2575 3850
F 0 "#PWR016" H 2575 3600 50  0001 C CNN
F 1 "GND" H 2575 3700 50  0000 C CNN
F 2 "" H 2575 3850 50  0000 C CNN
F 3 "" H 2575 3850 50  0000 C CNN
	1    2575 3850
	1    0    0    -1  
$EndComp
$Comp
L BUZ11 Q1
U 1 1 58131274
P 3325 1275
F 0 "Q1" H 3575 1350 50  0000 L CNN
F 1 "BUZ11" H 3575 1275 50  0000 L CNN
F 2 "Power_Integrations:TO-220" H 3575 1200 50  0000 L CIN
F 3 "" H 3325 1275 50  0000 L CNN
	1    3325 1275
	0    -1   -1   0   
$EndComp
$Comp
L CONN_01X02 P1
U 1 1 58132226
P 1225 1975
F 0 "P1" H 1225 2125 50  0000 C CNN
F 1 "CONN_01X02" V 1325 1975 50  0000 C CNN
F 2 "Pin_Headers:Pin_Header_Straight_1x02" H 1225 1975 50  0001 C CNN
F 3 "" H 1225 1975 50  0000 C CNN
	1    1225 1975
	-1   0    0    1   
$EndComp
$Comp
L VCC #PWR017
U 1 1 58132BD3
P 4250 1925
F 0 "#PWR017" H 4250 1775 50  0001 C CNN
F 1 "VCC" H 4250 2075 50  0000 C CNN
F 2 "" H 4250 1925 50  0000 C CNN
F 3 "" H 4250 1925 50  0000 C CNN
	1    4250 1925
	1    0    0    -1  
$EndComp
$Comp
L GND #PWR018
U 1 1 58132C17
P 4850 1275
F 0 "#PWR018" H 4850 1025 50  0001 C CNN
F 1 "GND" H 4850 1125 50  0000 C CNN
F 2 "" H 4850 1275 50  0000 C CNN
F 3 "" H 4850 1275 50  0000 C CNN
	1    4850 1275
	1    0    0    -1  
$EndComp
Text Notes 5625 975  0    197  ~ 39
Sekcja zasilania
Text Notes 19100 7600 1    197  ~ 39
Programator SWD
$Comp
L +3.3V #PWR019
U 1 1 58135B89
P 1250 10100
F 0 "#PWR019" H 1250 9950 50  0001 C CNN
F 1 "+3.3V" H 1250 10240 50  0000 C CNN
F 2 "" H 1250 10100 50  0000 C CNN
F 3 "" H 1250 10100 50  0000 C CNN
	1    1250 10100
	1    0    0    -1  
$EndComp
$Comp
L SWITCH_INV SW2
U 1 1 58137519
P 2625 2025
F 0 "SW2" H 2425 2175 50  0000 C CNN
F 1 "SWITCH_INV" H 2475 1875 50  0000 C CNN
F 2 "Buttons_Switches_THT:SW_Micro_SPST" H 2625 2025 50  0001 C CNN
F 3 "" H 2625 2025 50  0000 C CNN
	1    2625 2025
	1    0    0    -1  
$EndComp
$Comp
L TB6612 U2
U 1 1 581383CE
P 3500 14575
F 0 "U2" H 3100 13775 50  0000 C CNN
F 1 "TB6612" H 3500 15275 50  0000 C CNN
F 2 "warsztaty:TB6612" H 3500 14575 50  0001 C CNN
F 3 "" H 3500 14575 50  0001 C CNN
	1    3500 14575
	1    0    0    -1  
$EndComp
$Comp
L CONN_01X02 P2
U 1 1 58138F2B
P 4875 14425
F 0 "P2" H 4875 14575 50  0000 C CNN
F 1 "CONN_01X02" V 4975 14425 50  0000 C CNN
F 2 "Pin_Headers:Pin_Header_Straight_1x02" H 4875 14425 50  0001 C CNN
F 3 "" H 4875 14425 50  0000 C CNN
	1    4875 14425
	1    0    0    -1  
$EndComp
$Comp
L CONN_01X02 P3
U 1 1 58139369
P 4875 14975
F 0 "P3" H 4875 15125 50  0000 C CNN
F 1 "CONN_01X02" V 4975 14975 50  0000 C CNN
F 2 "Pin_Headers:Pin_Header_Straight_1x02" H 4875 14975 50  0001 C CNN
F 3 "" H 4875 14975 50  0000 C CNN
	1    4875 14975
	1    0    0    -1  
$EndComp
$Comp
L +3V3 #PWR020
U 1 1 5813A0B1
P 2075 13425
F 0 "#PWR020" H 2075 13275 50  0001 C CNN
F 1 "+3V3" H 2075 13565 50  0000 C CNN
F 2 "" H 2075 13425 50  0000 C CNN
F 3 "" H 2075 13425 50  0000 C CNN
	1    2075 13425
	1    0    0    -1  
$EndComp
$Comp
L GND #PWR021
U 1 1 5813A525
P 2025 15900
F 0 "#PWR021" H 2025 15650 50  0001 C CNN
F 1 "GND" H 2025 15750 50  0000 C CNN
F 2 "" H 2025 15900 50  0000 C CNN
F 3 "" H 2025 15900 50  0000 C CNN
	1    2025 15900
	1    0    0    -1  
$EndComp
$Comp
L C C4
U 1 1 5813B7E9
P 1725 13550
F 0 "C4" H 1750 13650 50  0000 L CNN
F 1 "100n" H 1750 13450 50  0000 L CNN
F 2 "Capacitors_SMD:C_0805_HandSoldering" H 1763 13400 50  0001 C CNN
F 3 "" H 1725 13550 50  0000 C CNN
	1    1725 13550
	0    -1   -1   0   
$EndComp
$Comp
L C C5
U 1 1 5813C05A
P 1725 13875
F 0 "C5" H 1750 13975 50  0000 L CNN
F 1 "100n" H 1750 13775 50  0000 L CNN
F 2 "Capacitors_SMD:C_0805_HandSoldering" H 1763 13725 50  0001 C CNN
F 3 "" H 1725 13875 50  0000 C CNN
	1    1725 13875
	0    -1   -1   0   
$EndComp
$Comp
L C C17
U 1 1 5813CAB9
P 5300 14225
F 0 "C17" H 5325 14325 50  0000 L CNN
F 1 "100n" H 5325 14125 50  0000 L CNN
F 2 "Capacitors_SMD:C_0805_HandSoldering" H 5338 14075 50  0001 C CNN
F 3 "" H 5300 14225 50  0000 C CNN
	1    5300 14225
	1    0    0    -1  
$EndComp
$Comp
L VCC #PWR022
U 1 1 5813D63D
P 5900 13875
F 0 "#PWR022" H 5900 13725 50  0001 C CNN
F 1 "VCC" H 5900 14025 50  0000 C CNN
F 2 "" H 5900 13875 50  0000 C CNN
F 3 "" H 5900 13875 50  0000 C CNN
	1    5900 13875
	1    0    0    -1  
$EndComp
$Comp
L CP C18
U 1 1 5813E6C0
P 5725 14225
F 0 "C18" H 5750 14325 50  0000 L CNN
F 1 "33u" H 5750 14125 50  0000 L CNN
F 2 "Capacitors_Tantalum_SMD:TantalC_SizeB_EIA-3528_HandSoldering" H 5763 14075 50  0001 C CNN
F 3 "" H 5725 14225 50  0000 C CNN
	1    5725 14225
	1    0    0    -1  
$EndComp
Text Notes 625  12575 0    197  ~ 39
Sekcja sterowania silnikami
Text Notes 1750 2825 0    118  ~ 24
maks 1.5A(SMD) lub 2A(THC)
Text Notes 5025 2750 0    118  ~ 24
maks 1A(SMD) lub 5A(THC)
Text Notes 2625 950  0    118  ~ 24
maks 30A 
NoConn ~ 3125 2125
$Comp
L CONN_01X05 P6
U 1 1 5815EA63
P 18425 8800
F 0 "P6" H 18425 9100 50  0000 C CNN
F 1 "CONN_01X05" V 18525 8800 50  0000 C CNN
F 2 "Pin_Headers:Pin_Header_Straight_1x05" H 18425 8800 50  0001 C CNN
F 3 "" H 18425 8800 50  0000 C CNN
	1    18425 8800
	1    0    0    -1  
$EndComp
$Comp
L CONN_01X05 P5
U 1 1 5815F74D
P 18400 9875
F 0 "P5" H 18400 10175 50  0000 C CNN
F 1 "CONN_01X05" V 18500 9875 50  0000 C CNN
F 2 "Pin_Headers:Pin_Header_Straight_1x05" H 18400 9875 50  0001 C CNN
F 3 "" H 18400 9875 50  0000 C CNN
	1    18400 9875
	1    0    0    -1  
$EndComp
Text Notes 19775 10350 1    197  ~ 39
Płytki enkoderów\nAS5040
Text Notes 19825 13975 1    197  ~ 39
Płytki czujników\nVCNL4010
$Comp
L CONN_01X06 P8
U 1 1 5816758E
P 18450 13075
F 0 "P8" H 18450 13425 50  0000 C CNN
F 1 "CONN_01X06" V 18550 13075 50  0000 C CNN
F 2 "Pin_Headers:Pin_Header_Straight_1x06" H 18450 13075 50  0001 C CNN
F 3 "" H 18450 13075 50  0000 C CNN
	1    18450 13075
	1    0    0    -1  
$EndComp
$Comp
L GND #PWR023
U 1 1 58168654
P 17600 13125
F 0 "#PWR023" H 17600 12875 50  0001 C CNN
F 1 "GND" H 17600 12975 50  0000 C CNN
F 2 "" H 17600 13125 50  0000 C CNN
F 3 "" H 17600 13125 50  0000 C CNN
	1    17600 13125
	1    0    0    -1  
$EndComp
Text Notes 18150 13450 1    39   ~ 0
Vcc
Text Notes 18050 13400 1    39   ~ 0
V_I2C
Text Notes 18225 12964 2    39   ~ 0
SDA
Text Notes 18225 13064 2    39   ~ 0
SCL
Text Notes 18225 12864 2    39   ~ 0
Interrupt
$Comp
L CONN_01X06 P9
U 1 1 5816A1CC
P 18475 11050
F 0 "P9" H 18475 11400 50  0000 C CNN
F 1 "CONN_01X06" V 18575 11050 50  0000 C CNN
F 2 "Pin_Headers:Pin_Header_Straight_1x06" H 18475 11050 50  0001 C CNN
F 3 "" H 18475 11050 50  0000 C CNN
	1    18475 11050
	1    0    0    -1  
$EndComp
$Comp
L GND #PWR024
U 1 1 5816A1DA
P 17600 11100
F 0 "#PWR024" H 17600 10850 50  0001 C CNN
F 1 "GND" H 17600 10950 50  0000 C CNN
F 2 "" H 17600 11100 50  0000 C CNN
F 3 "" H 17600 11100 50  0000 C CNN
	1    17600 11100
	1    0    0    -1  
$EndComp
Text Notes 18175 11425 1    39   ~ 0
Vcc
Text Notes 18075 11375 1    39   ~ 0
V_I2C
Text Notes 18250 10939 2    39   ~ 0
SDA
Text Notes 18250 11039 2    39   ~ 0
SCL
Text Notes 18250 10839 2    39   ~ 0
Interrupt
$Comp
L GND #PWR025
U 1 1 5816EACF
P 18900 9200
F 0 "#PWR025" H 18900 8950 50  0001 C CNN
F 1 "GND" H 18900 9050 50  0000 C CNN
F 2 "" H 18900 9200 50  0000 C CNN
F 3 "" H 18900 9200 50  0000 C CNN
	1    18900 9200
	1    0    0    -1  
$EndComp
$Comp
L GND #PWR026
U 1 1 581A37ED
P 18100 9525
F 0 "#PWR026" H 18100 9275 50  0001 C CNN
F 1 "GND" H 18100 9375 50  0000 C CNN
F 2 "" H 18100 9525 50  0000 C CNN
F 3 "" H 18100 9525 50  0000 C CNN
	1    18100 9525
	1    0    0    -1  
$EndComp
$Comp
L +3.3V #PWR027
U 1 1 581A3A6B
P 18900 8250
F 0 "#PWR027" H 18900 8100 50  0001 C CNN
F 1 "+3.3V" H 18900 8390 50  0000 C CNN
F 2 "" H 18900 8250 50  0000 C CNN
F 3 "" H 18900 8250 50  0000 C CNN
	1    18900 8250
	1    0    0    -1  
$EndComp
$Comp
L GND #PWR028
U 1 1 581AF8D0
P 10150 3525
F 0 "#PWR028" H 10150 3275 50  0001 C CNN
F 1 "GND" H 10150 3375 50  0000 C CNN
F 2 "" H 10150 3525 50  0000 C CNN
F 3 "" H 10150 3525 50  0000 C CNN
	1    10150 3525
	1    0    0    -1  
$EndComp
Text Notes 9275 1675 0    197  ~ 39
Diody sygn.
$Comp
L CONN_01X06 P7
U 1 1 581B5CB6
P 18450 12075
F 0 "P7" H 18450 12425 50  0000 C CNN
F 1 "CONN_01X06" V 18550 12075 50  0000 C CNN
F 2 "Pin_Headers:Pin_Header_Straight_1x06" H 18450 12075 50  0001 C CNN
F 3 "" H 18450 12075 50  0000 C CNN
	1    18450 12075
	1    0    0    -1  
$EndComp
$Comp
L GND #PWR029
U 1 1 581B5CBD
P 17625 12125
F 0 "#PWR029" H 17625 11875 50  0001 C CNN
F 1 "GND" H 17625 11975 50  0000 C CNN
F 2 "" H 17625 12125 50  0000 C CNN
F 3 "" H 17625 12125 50  0000 C CNN
	1    17625 12125
	1    0    0    -1  
$EndComp
$Comp
L +3.3V #PWR030
U 1 1 581B5CC3
P 17600 12650
F 0 "#PWR030" H 17600 12500 50  0001 C CNN
F 1 "+3.3V" H 17600 12790 50  0000 C CNN
F 2 "" H 17600 12650 50  0000 C CNN
F 3 "" H 17600 12650 50  0000 C CNN
	1    17600 12650
	1    0    0    -1  
$EndComp
Text Notes 18150 12450 1    39   ~ 0
Vcc
Text Notes 18050 12400 1    39   ~ 0
V_I2C
Text Notes 18225 11964 2    39   ~ 0
SDA
Text Notes 18225 12064 2    39   ~ 0
SCL
Text Notes 18225 11864 2    39   ~ 0
Interrupt
Text Notes 18725 11225 0    118  Italic 24
Z tej plytki trzeba \nwylutowac rezystory!!!
$Comp
L LTC4316 U5
U 1 1 581A8540
P 15525 13225
F 0 "U5" H 15175 12625 50  0000 C CNN
F 1 "LTC4316" H 15175 13825 50  0000 C CNN
F 2 "Housings_SSOP:MSOP-10_3x3mm_Pitch0.5mm" H 15525 13225 50  0001 C CNN
F 3 "" H 15525 13225 50  0001 C CNN
	1    15525 13225
	1    0    0    -1  
$EndComp
$Comp
L GND #PWR031
U 1 1 581AA9C7
P 14150 12450
F 0 "#PWR031" H 14150 12200 50  0001 C CNN
F 1 "GND" H 14150 12300 50  0000 C CNN
F 2 "" H 14150 12450 50  0000 C CNN
F 3 "" H 14150 12450 50  0000 C CNN
	1    14150 12450
	1    0    0    -1  
$EndComp
$Comp
L GND #PWR032
U 1 1 581AD690
P 16500 13750
F 0 "#PWR032" H 16500 13500 50  0001 C CNN
F 1 "GND" H 16500 13600 50  0000 C CNN
F 2 "" H 16500 13750 50  0000 C CNN
F 3 "" H 16500 13750 50  0000 C CNN
	1    16500 13750
	1    0    0    -1  
$EndComp
$Comp
L R R10
U 1 1 581B10D9
P 13775 13250
F 0 "R10" V 13855 13250 50  0000 C CNN
F 1 "976k" V 13775 13250 50  0000 C CNN
F 2 "Resistors_SMD:R_0805_HandSoldering" V 13705 13250 50  0001 C CNN
F 3 "" H 13775 13250 50  0000 C CNN
	1    13775 13250
	-1   0    0    1   
$EndComp
$Comp
L R R9
U 1 1 581B139E
P 13775 12850
F 0 "R9" V 13855 12850 50  0000 C CNN
F 1 "102k" V 13775 12850 50  0000 C CNN
F 2 "Resistors_SMD:R_0805_HandSoldering" V 13705 12850 50  0001 C CNN
F 3 "" H 13775 12850 50  0000 C CNN
	1    13775 12850
	-1   0    0    1   
$EndComp
$Comp
L LTC4316 U6
U 1 1 581B3E0F
P 15550 11625
F 0 "U6" H 15200 11025 50  0000 C CNN
F 1 "LTC4316" H 15200 12225 50  0000 C CNN
F 2 "Housings_SSOP:MSOP-10_3x3mm_Pitch0.5mm" H 15550 11625 50  0001 C CNN
F 3 "" H 15550 11625 50  0001 C CNN
	1    15550 11625
	1    0    0    -1  
$EndComp
$Comp
L GND #PWR033
U 1 1 581B3E15
P 14175 10850
F 0 "#PWR033" H 14175 10600 50  0001 C CNN
F 1 "GND" H 14175 10700 50  0000 C CNN
F 2 "" H 14175 10850 50  0000 C CNN
F 3 "" H 14175 10850 50  0000 C CNN
	1    14175 10850
	1    0    0    -1  
$EndComp
$Comp
L GND #PWR034
U 1 1 581B3E2E
P 16525 12150
F 0 "#PWR034" H 16525 11900 50  0001 C CNN
F 1 "GND" H 16525 12000 50  0000 C CNN
F 2 "" H 16525 12150 50  0000 C CNN
F 3 "" H 16525 12150 50  0000 C CNN
	1    16525 12150
	1    0    0    -1  
$EndComp
$Comp
L R R12
U 1 1 581B3E34
P 13800 11650
F 0 "R12" V 13880 11650 50  0000 C CNN
F 1 "976k" V 13800 11650 50  0000 C CNN
F 2 "Resistors_SMD:R_0805_HandSoldering" V 13730 11650 50  0001 C CNN
F 3 "" H 13800 11650 50  0000 C CNN
	1    13800 11650
	-1   0    0    1   
$EndComp
$Comp
L R R11
U 1 1 581B3E3A
P 13800 11250
F 0 "R11" V 13880 11250 50  0000 C CNN
F 1 "182k" V 13800 11250 50  0000 C CNN
F 2 "Resistors_SMD:R_0805_HandSoldering" V 13730 11250 50  0001 C CNN
F 3 "" H 13800 11250 50  0000 C CNN
	1    13800 11250
	-1   0    0    1   
$EndComp
Text Label 16425 11425 0    51   ~ 0
SCLOUT1
Text Label 17875 12025 2    51   ~ 0
SCLOUT1
Text Label 16425 11625 0    51   ~ 0
SDAOUT1
Text Label 17875 11925 2    51   ~ 0
SDAOUT1
Text Label 16475 13025 0    51   ~ 0
SCLOUT2
Text Label 17700 13025 2    51   ~ 0
SCLOUT2
Text Label 16475 13225 0    51   ~ 0
SDAOUT2
Text Label 17700 12925 2    51   ~ 0
SDAOUT2
NoConn ~ 17700 12825
NoConn ~ 17700 11825
NoConn ~ 17725 10800
Text Label 8650 12700 2    51   ~ 0
I2C2_SCL
Text Label 16475 12825 0    51   ~ 0
SCL_Czujnik3
Text Label 16450 11225 0    51   ~ 0
SCL_Czujnik2
Text Label 17725 11000 2    51   ~ 0
SCL_Czujnik1
Text Label 16500 13425 0    51   ~ 0
SDA_Czujnik3
Text Label 16425 11825 0    51   ~ 0
SDA_Czujnik2
Text Label 17725 10900 2    51   ~ 0
SDA_Czujnik1
Text Label 14350 6450 0    51   ~ 0
I2C1_SCL
Text Label 14350 6550 0    51   ~ 0
I2C1_SDA
Text Label 11500 12725 2    51   ~ 0
I2C1_SCL
$Comp
L R R8
U 1 1 581E4332
P 11750 12475
F 0 "R8" V 11830 12475 50  0000 C CNN
F 1 "10k" V 11750 12475 50  0000 C CNN
F 2 "Resistors_SMD:R_0805_HandSoldering" V 11680 12475 50  0001 C CNN
F 3 "" H 11750 12475 50  0000 C CNN
	1    11750 12475
	-1   0    0    1   
$EndComp
Text Label 12325 13575 0    51   ~ 0
SCL_Czujnik3
Text Label 12375 13425 0    51   ~ 0
SCL_Czujnik2
Text Label 12425 13300 0    51   ~ 0
SCL_Czujnik1
Text Label 11250 13550 0    51   ~ 0
SDA_Czujnik3
Text Label 11300 13400 0    51   ~ 0
SDA_Czujnik2
Text Label 11350 13275 0    51   ~ 0
SDA_Czujnik1
$Comp
L R R6
U 1 1 581E4355
P 10675 12450
F 0 "R6" V 10755 12450 50  0000 C CNN
F 1 "10k" V 10675 12450 50  0000 C CNN
F 2 "Resistors_SMD:R_0805_HandSoldering" V 10605 12450 50  0001 C CNN
F 3 "" H 10675 12450 50  0000 C CNN
	1    10675 12450
	-1   0    0    1   
$EndComp
Text Label 10425 12700 2    51   ~ 0
I2C1_SDA
Text Label 14425 7550 0    51   ~ 0
I2C2_SDA
Text Label 7575 12675 2    51   ~ 0
I2C2_SDA
Text Label 14425 7650 0    51   ~ 0
I2C2_SCL
Text Notes 7150 11975 0    197  ~ 39
Linie interfejsu I2C
Text Notes 13275 10550 0    197  ~ 39
Translatory adresu I2C
$Comp
L STM32F303C(6-8)Tx U4
U 1 1 582412C0
P 9100 7950
F 0 "U4" H 9100 8050 50  0000 C CNN
F 1 "STM32F303C(6-8)Tx" H 9100 7850 50  0000 C CNN
F 2 "misc:LQFP48" H 9100 7750 50  0000 C CIN
F 3 "" H 9100 7950 50  0000 C CNN
	1    9100 7950
	1    0    0    -1  
$EndComp
Text Label 3900 9950 2    60   ~ 0
VDDA
Text Label 2675 11750 3    60   ~ 0
VDDA
$Comp
L C C1
U 1 1 581B9FAC
P 1075 10500
F 0 "C1" H 1100 10600 50  0000 L CNN
F 1 "100n" H 1100 10400 50  0000 L CNN
F 2 "Capacitors_SMD:C_0805_HandSoldering" H 1113 10350 50  0001 C CNN
F 3 "" H 1075 10500 50  0000 C CNN
	1    1075 10500
	0    1    1    0   
$EndComp
$Comp
L CP C2
U 1 1 581BA317
P 1075 10875
F 0 "C2" H 1100 10975 50  0000 L CNN
F 1 "1u" H 1100 10775 50  0000 L CNN
F 2 "Capacitors_Tantalum_SMD:TantalC_SizeA_EIA-3216_HandSoldering" H 1113 10725 50  0001 C CNN
F 3 "" H 1075 10875 50  0000 C CNN
	1    1075 10875
	0    1    1    0   
$EndComp
$Comp
L GND #PWR035
U 1 1 581BA7A3
P 850 11075
F 0 "#PWR035" H 850 10825 50  0001 C CNN
F 1 "GND" H 850 10925 50  0000 C CNN
F 2 "" H 850 11075 50  0000 C CNN
F 3 "" H 850 11075 50  0000 C CNN
	1    850  11075
	1    0    0    -1  
$EndComp
Text Label 3900 9450 2    60   ~ 0
VBAT
Text Label 1250 11750 3    60   ~ 0
VBAT
Text Label 3900 9650 2    60   ~ 0
VDD1
Text Label 3900 9750 2    60   ~ 0
VDD2
Text Label 3900 9850 2    60   ~ 0
VDD3
Text Label 2100 11750 3    60   ~ 0
VDD1
Text Label 2250 11750 3    60   ~ 0
VDD2
Text Label 2450 11750 3    60   ~ 0
VDD3
Text Notes 650  9800 0    197  ~ 39
Zasilanie STM32
Text Label 18125 6550 2    59   ~ 0
SWCLK
Text Label 18125 6750 2    59   ~ 0
SWDIO
Text Label 3675 7250 2    59   ~ 0
SWCLK
Text Label 3650 7150 2    59   ~ 0
SWDIO
NoConn ~ 19475 3175
NoConn ~ 19375 3175
NoConn ~ 19275 3175
NoConn ~ 19175 3175
NoConn ~ 18675 3300
Text Notes 18675 2925 1    51   Italic 0
Vout(3,3V)
$Comp
L +3.3V #PWR036
U 1 1 581DE9C5
P 18150 3200
F 0 "#PWR036" H 18150 3050 50  0001 C CNN
F 1 "+3.3V" H 18150 3340 50  0000 C CNN
F 2 "" H 18150 3200 50  0000 C CNN
F 3 "" H 18150 3200 50  0000 C CNN
	1    18150 3200
	1    0    0    -1  
$EndComp
$Comp
L GND #PWR037
U 1 1 581DF781
P 18150 3800
F 0 "#PWR037" H 18150 3550 50  0001 C CNN
F 1 "GND" H 18150 3650 50  0000 C CNN
F 2 "" H 18150 3800 50  0000 C CNN
F 3 "" H 18150 3800 50  0000 C CNN
	1    18150 3800
	1    0    0    -1  
$EndComp
Text Label 8400 13525 0    51   ~ 0
SDA_ZYROSAKCE
Text Label 18975 3850 1    51   ~ 0
SDA_ZYROSAKCE
Text Label 9400 13550 0    51   ~ 0
SCL_ZYROSAKCE
Text Label 19075 3850 1    51   ~ 0
SCL_ZYROSAKCE
Text Notes 19500 2900 1    51   Italic 0
INT1
Text Notes 19275 2850 1    51   Italic 0
CS(domyslnie HIGH -I2C)
Text Notes 19175 2825 1    51   Italic 0
SA0/SDO
Text Notes 19400 2900 1    51   Italic 0
INT2
$Comp
L CONN_01X09 P11
U 1 1 581E62A9
P 19075 2975
F 0 "P11" H 19075 3475 50  0000 C CNN
F 1 "CONN_01X09" V 19175 2975 50  0000 C CNN
F 2 "Pin_Headers:Pin_Header_Straight_1x09" H 19075 2975 50  0001 C CNN
F 3 "" H 19075 2975 50  0000 C CNN
	1    19075 2975
	0    -1   -1   0   
$EndComp
$Comp
L +3.3V #PWR038
U 1 1 581E81E2
P 12125 12250
F 0 "#PWR038" H 12125 12100 50  0001 C CNN
F 1 "+3.3V" H 12125 12390 50  0000 C CNN
F 2 "" H 12125 12250 50  0000 C CNN
F 3 "" H 12125 12250 50  0000 C CNN
	1    12125 12250
	1    0    0    -1  
$EndComp
$Comp
L +3.3V #PWR039
U 1 1 581E829E
P 11050 12225
F 0 "#PWR039" H 11050 12075 50  0001 C CNN
F 1 "+3.3V" H 11050 12365 50  0000 C CNN
F 2 "" H 11050 12225 50  0000 C CNN
F 3 "" H 11050 12225 50  0000 C CNN
	1    11050 12225
	1    0    0    -1  
$EndComp
Text Notes 18050 1650 0    197  ~ 39
Modul LSM6DS33
Text Notes 2875 4100 0    51   Italic 0
Prefereujemy stabilizatory bez regulacji, bo zajmuja mniej miejsca.
$Comp
L D D1
U 1 1 581FD087
P 9600 3100
F 0 "D1" H 9600 3200 50  0000 C CNN
F 1 "D" H 9600 3000 50  0000 C CNN
F 2 "Diodes_SMD:D_0805" H 9600 3100 50  0001 C CNN
F 3 "" H 9600 3100 50  0000 C CNN
	1    9600 3100
	0    -1   -1   0   
$EndComp
$Comp
L D D2
U 1 1 581FD18F
P 9875 3100
F 0 "D2" H 9875 3200 50  0000 C CNN
F 1 "D" H 9875 3000 50  0000 C CNN
F 2 "Diodes_SMD:D_0805" H 9875 3100 50  0001 C CNN
F 3 "" H 9875 3100 50  0000 C CNN
	1    9875 3100
	0    -1   -1   0   
$EndComp
$Comp
L D D3
U 1 1 581FD31D
P 10150 3100
F 0 "D3" H 10150 3200 50  0000 C CNN
F 1 "D" H 10150 3000 50  0000 C CNN
F 2 "Diodes_SMD:D_0805" H 10150 3100 50  0001 C CNN
F 3 "" H 10150 3100 50  0000 C CNN
	1    10150 3100
	0    -1   -1   0   
$EndComp
$Comp
L D D4
U 1 1 581FD3F8
P 10425 3100
F 0 "D4" H 10425 3200 50  0000 C CNN
F 1 "D" H 10425 3000 50  0000 C CNN
F 2 "Diodes_SMD:D_0805" H 10425 3100 50  0001 C CNN
F 3 "" H 10425 3100 50  0000 C CNN
	1    10425 3100
	0    -1   -1   0   
$EndComp
$Comp
L D D5
U 1 1 581FD4CA
P 10700 3100
F 0 "D5" H 10700 3200 50  0000 C CNN
F 1 "D" H 10700 3000 50  0000 C CNN
F 2 "Diodes_SMD:D_0805" H 10700 3100 50  0001 C CNN
F 3 "" H 10700 3100 50  0000 C CNN
	1    10700 3100
	0    -1   -1   0   
$EndComp
$Comp
L R R2
U 1 1 581FD7ED
P 9600 2675
F 0 "R2" V 9680 2675 50  0000 C CNN
F 1 "22" V 9600 2675 50  0000 C CNN
F 2 "Resistors_SMD:R_0805_HandSoldering" V 9530 2675 50  0001 C CNN
F 3 "" H 9600 2675 50  0000 C CNN
	1    9600 2675
	1    0    0    -1  
$EndComp
$Comp
L R R3
U 1 1 581FDC41
P 9875 2675
F 0 "R3" V 9955 2675 50  0000 C CNN
F 1 "100" V 9875 2675 50  0000 C CNN
F 2 "Resistors_SMD:R_0805_HandSoldering" V 9805 2675 50  0001 C CNN
F 3 "" H 9875 2675 50  0000 C CNN
	1    9875 2675
	1    0    0    -1  
$EndComp
Text Label 17750 9000 2    51   ~ 0
Enk1_A
Text Label 17750 8900 2    51   ~ 0
Enk1_B
Text Label 17750 9975 2    51   ~ 0
Enk2_B
Text Label 17750 10075 2    51   ~ 0
Enk2_A
Text Label 3650 5850 2    51   ~ 0
Enk1_A
Text Label 3650 5950 2    51   ~ 0
Enk1_B
Text Label 3650 6650 2    51   ~ 0
Enk2_A
Text Label 3650 6750 2    51   ~ 0
Enk2_B
Text Label 4100 6250 2    51   ~ 0
PWM_A
Text Label 14275 7350 0    51   ~ 0
PWM_B
Text Label 1800 14225 2    51   ~ 0
PWM_A
Text Label 1800 14575 2    51   ~ 0
PWM_B
Text Label 4100 6350 2    51   ~ 0
A_IN2
Text Label 4100 6450 2    51   ~ 0
A_IN1
Text Label 1925 14425 2    51   ~ 0
A_IN1
Text Label 1925 14325 2    51   ~ 0
A_IN2
Text Label 14275 7250 0    51   ~ 0
B_IN2
Text Label 14525 7150 0    51   ~ 0
B_IN1
Text Notes 13200 1650 0    197  ~ 39
Modul Bluetooth
$Comp
L CONN_01X04 P4
U 1 1 58226AF2
P 14350 2000
F 0 "P4" H 14350 2250 50  0000 C CNN
F 1 "CONN_01X04" V 14450 2000 50  0000 C CNN
F 2 "Pin_Headers:Pin_Header_Straight_1x04" H 14350 2000 50  0001 C CNN
F 3 "" H 14350 2000 50  0000 C CNN
	1    14350 2000
	0    -1   -1   0   
$EndComp
$Comp
L GND #PWR040
U 1 1 58227F6B
P 13375 2325
F 0 "#PWR040" H 13375 2075 50  0001 C CNN
F 1 "GND" H 13375 2175 50  0000 C CNN
F 2 "" H 13375 2325 50  0000 C CNN
F 3 "" H 13375 2325 50  0000 C CNN
	1    13375 2325
	1    0    0    -1  
$EndComp
$Comp
L +3.3V #PWR041
U 1 1 58228449
P 13925 1925
F 0 "#PWR041" H 13925 1775 50  0001 C CNN
F 1 "+3.3V" H 13925 2065 50  0000 C CNN
F 2 "" H 13925 1925 50  0000 C CNN
F 3 "" H 13925 1925 50  0000 C CNN
	1    13925 1925
	1    0    0    -1  
$EndComp
Text Label 3875 6150 2    51   Italic 0
RX
Text Label 14500 2475 3    51   Italic 0
RX
Text Label 14400 2475 3    51   Italic 0
TX
Text Label 3875 6050 2    51   Italic 0
TX
Text Label 1925 14675 2    51   ~ 0
B_IN1
Text Label 1925 14775 2    51   ~ 0
B_IN2
Text Label 3925 6550 2    51   ~ 0
Dioda1
Text Label 14875 5850 0    51   ~ 0
Dioda2
Text Label 14875 5950 0    51   ~ 0
Dioda3
Text Label 14925 6850 0    51   ~ 0
Dioda4
Text Label 14925 6950 0    51   ~ 0
Dioda5
Text Label 9600 2300 1    51   ~ 0
Dioda5
Text Label 9875 2300 1    51   ~ 0
Dioda4
Text Label 10150 2300 1    51   ~ 0
Dioda3
Text Label 10425 2300 1    51   ~ 0
Dioda2
Text Label 10700 2300 1    51   ~ 0
Dioda1
NoConn ~ 4100 7750
NoConn ~ 4100 7650
NoConn ~ 4100 7550
NoConn ~ 4100 7350
NoConn ~ 4100 7050
NoConn ~ 4100 6950
NoConn ~ 4100 6850
NoConn ~ 14100 6750
NoConn ~ 14100 6650
NoConn ~ 14100 6350
NoConn ~ 14100 6250
NoConn ~ 14100 6150
Text Notes 18025 9850 2    51   ~ 0
Enk2_Indeks
NoConn ~ 17750 9875
Text Notes 17950 8775 2    51   ~ 0
Enk1_Indeks
NoConn ~ 17750 8800
$Comp
L PWR_FLAG #FLG042
U 1 1 58268D91
P 5450 1450
F 0 "#FLG042" H 5450 1545 50  0001 C CNN
F 1 "PWR_FLAG" H 5450 1630 50  0000 C CNN
F 2 "" H 5450 1450 50  0000 C CNN
F 3 "" H 5450 1450 50  0000 C CNN
	1    5450 1450
	1    0    0    -1  
$EndComp
$Comp
L PWR_FLAG #FLG043
U 1 1 5826902D
P 5925 1450
F 0 "#FLG043" H 5925 1545 50  0001 C CNN
F 1 "PWR_FLAG" H 5925 1630 50  0000 C CNN
F 2 "" H 5925 1450 50  0000 C CNN
F 3 "" H 5925 1450 50  0000 C CNN
	1    5925 1450
	1    0    0    -1  
$EndComp
$Comp
L VCC #PWR044
U 1 1 582690FB
P 5450 1675
F 0 "#PWR044" H 5450 1525 50  0001 C CNN
F 1 "VCC" H 5450 1825 50  0000 C CNN
F 2 "" H 5450 1675 50  0000 C CNN
F 3 "" H 5450 1675 50  0000 C CNN
	1    5450 1675
	-1   0    0    1   
$EndComp
$Comp
L GND #PWR045
U 1 1 582692CD
P 5925 1675
F 0 "#PWR045" H 5925 1425 50  0001 C CNN
F 1 "GND" H 5925 1525 50  0000 C CNN
F 2 "" H 5925 1675 50  0000 C CNN
F 3 "" H 5925 1675 50  0000 C CNN
	1    5925 1675
	1    0    0    -1  
$EndComp
$Comp
L CP C3
U 1 1 581C11F9
P 5150 3325
F 0 "C3" H 5175 3425 50  0000 L CNN
F 1 "10u" H 5175 3225 50  0000 L CNN
F 2 "Capacitors_Tantalum_SMD:TantalC_SizeA_EIA-3216_HandSoldering" H 5188 3175 50  0001 C CNN
F 3 "" H 5150 3325 50  0000 C CNN
	1    5150 3325
	1    0    0    -1  
$EndComp
$Comp
L CP C14
U 1 1 581C218D
P 6525 3300
F 0 "C14" H 6550 3400 50  0000 L CNN
F 1 "10u" H 6550 3200 50  0000 L CNN
F 2 "Capacitors_Tantalum_SMD:TantalC_SizeA_EIA-3216_HandSoldering" H 6563 3150 50  0001 C CNN
F 3 "" H 6525 3300 50  0000 C CNN
	1    6525 3300
	1    0    0    -1  
$EndComp
Text Notes 5425 3775 0    118  ~ 0
TANTALOWE!!!
$Comp
L C C16
U 1 1 581CBFA0
P 13550 12025
F 0 "C16" H 13575 12125 50  0000 L CNN
F 1 "100n" H 13575 11925 50  0000 L CNN
F 2 "Capacitors_SMD:C_0805_HandSoldering" H 13588 11875 50  0001 C CNN
F 3 "" H 13550 12025 50  0000 C CNN
	1    13550 12025
	-1   0    0    1   
$EndComp
$Comp
L +3.3V #PWR046
U 1 1 581D21D6
P 13225 11625
F 0 "#PWR046" H 13225 11475 50  0001 C CNN
F 1 "+3.3V" H 13225 11765 50  0000 C CNN
F 2 "" H 13225 11625 50  0000 C CNN
F 3 "" H 13225 11625 50  0000 C CNN
	1    13225 11625
	1    0    0    -1  
$EndComp
$Comp
L GND #PWR047
U 1 1 581D2286
P 13825 12100
F 0 "#PWR047" H 13825 11850 50  0001 C CNN
F 1 "GND" H 13825 11950 50  0000 C CNN
F 2 "" H 13825 12100 50  0000 C CNN
F 3 "" H 13825 12100 50  0000 C CNN
	1    13825 12100
	1    0    0    -1  
$EndComp
$Comp
L C C19
U 1 1 581DB964
P 13675 1975
F 0 "C19" H 13700 2075 50  0000 L CNN
F 1 "100n" H 13700 1875 50  0000 L CNN
F 2 "Capacitors_SMD:C_0805_HandSoldering" H 13713 1825 50  0001 C CNN
F 3 "" H 13675 1975 50  0000 C CNN
	1    13675 1975
	0    1    1    0   
$EndComp
$Comp
L C C20
U 1 1 581DC3E4
P 13675 2175
F 0 "C20" H 13700 2275 50  0000 L CNN
F 1 "100n" H 13700 2075 50  0000 L CNN
F 2 "Capacitors_SMD:C_0805_HandSoldering" H 13713 2025 50  0001 C CNN
F 3 "" H 13675 2175 50  0000 C CNN
	1    13675 2175
	0    1    1    0   
$EndComp
$Comp
L +3.3V #PWR048
U 1 1 58168A53
P 17600 13650
F 0 "#PWR048" H 17600 13500 50  0001 C CNN
F 1 "+3.3V" H 17600 13790 50  0000 C CNN
F 2 "" H 17600 13650 50  0000 C CNN
F 3 "" H 17600 13650 50  0000 C CNN
	1    17600 13650
	1    0    0    -1  
$EndComp
$Comp
L +3.3V #PWR049
U 1 1 5816A1E1
P 17600 11625
F 0 "#PWR049" H 17600 11475 50  0001 C CNN
F 1 "+3.3V" H 17600 11765 50  0000 C CNN
F 2 "" H 17600 11625 50  0000 C CNN
F 3 "" H 17600 11625 50  0000 C CNN
	1    17600 11625
	1    0    0    -1  
$EndComp
Wire Wire Line
	2350 10075 2350 11500
Connection ~ 2350 10575
Wire Wire Line
	2050 10250 2050 10575
Connection ~ 2050 10450
Wire Wire Line
	1825 10450 2050 10450
Wire Wire Line
	3175 10475 2975 10475
Wire Wire Line
	2975 10325 2975 10625
Connection ~ 2975 10475
Wire Wire Line
	2675 10075 2675 10625
Wire Wire Line
	2675 10600 2675 11750
Connection ~ 2675 10600
Connection ~ 2350 10250
Connection ~ 2675 10325
Wire Wire Line
	2000 11300 2100 11300
Connection ~ 2100 11300
Wire Wire Line
	1700 11300 1625 11300
Wire Wire Line
	1625 11300 1625 11575
Wire Wire Line
	14100 9650 14825 9650
Wire Wire Line
	14100 9750 15025 9750
Wire Wire Line
	14825 9650 14825 9950
Connection ~ 14825 9750
Wire Wire Line
	14825 9850 14100 9850
Wire Wire Line
	3150 8675 3150 9350
Wire Wire Line
	2250 8675 3150 8675
Wire Wire Line
	2600 8500 2600 8825
Connection ~ 2600 8675
Wire Wire Line
	2250 9275 2600 9275
Wire Wire Line
	2450 9275 2450 9325
Wire Wire Line
	2600 9275 2600 9125
Connection ~ 2450 9275
Wire Wire Line
	4450 3125 5600 3125
Wire Wire Line
	4450 3125 4450 3075
Wire Wire Line
	5900 3425 5900 3800
Connection ~ 5900 3575
Wire Wire Line
	6525 3575 6525 3450
Wire Wire Line
	7450 3125 7450 3025
Wire Wire Line
	1275 3075 1275 3200
Wire Wire Line
	1275 3200 2275 3200
Connection ~ 1850 3200
Wire Wire Line
	2875 3200 3800 3200
Connection ~ 3200 3200
Wire Wire Line
	3800 3200 3800 3075
Wire Wire Line
	2575 3500 2575 3850
Wire Wire Line
	3200 3675 3200 3500
Connection ~ 3200 3675
Wire Wire Line
	1850 3500 1850 3675
Connection ~ 2575 3675
Connection ~ 1850 3675
Wire Wire Line
	1800 1175 3125 1175
Wire Wire Line
	1800 1175 1800 1925
Wire Wire Line
	1800 1925 1425 1925
Wire Wire Line
	4850 1175 4850 1275
Wire Notes Line
	625  4400 8100 4400
Wire Notes Line
	8100 4400 8100 650 
Wire Notes Line
	8100 650  625  650 
Wire Notes Line
	625  650  625  4425
Wire Wire Line
	3125 1925 4250 1925
Wire Wire Line
	4250 14375 4675 14375
Wire Wire Line
	4325 14375 4325 14475
Wire Wire Line
	4325 14475 4250 14475
Wire Wire Line
	4250 14575 4500 14575
Wire Wire Line
	4325 14575 4325 14675
Wire Wire Line
	4325 14675 4250 14675
Connection ~ 4325 14375
Wire Wire Line
	4500 14575 4500 14475
Wire Wire Line
	4500 14475 4675 14475
Connection ~ 4325 14575
Wire Wire Line
	4250 14825 4325 14825
Wire Wire Line
	4325 14825 4325 14925
Wire Wire Line
	4250 14925 4675 14925
Connection ~ 4325 14925
Wire Wire Line
	4675 15025 4325 15025
Wire Wire Line
	4325 15025 4325 15175
Wire Wire Line
	4325 15075 4250 15075
Wire Wire Line
	4325 15175 4250 15175
Connection ~ 4325 15075
Wire Wire Line
	1925 14325 2750 14325
Wire Wire Line
	1925 14425 2750 14425
Wire Wire Line
	1925 14675 2750 14675
Wire Wire Line
	1925 14775 2750 14775
Wire Wire Line
	2750 14575 1800 14575
Wire Wire Line
	1800 14225 2750 14225
Wire Wire Line
	2750 14125 2625 14125
Wire Wire Line
	2625 14125 2625 14025
Wire Wire Line
	2075 14025 2750 14025
Wire Wire Line
	2075 13425 2075 14025
Connection ~ 2625 14025
Wire Wire Line
	2750 15175 2600 15175
Wire Wire Line
	2600 15175 2600 15275
Wire Wire Line
	2300 15275 2750 15275
Wire Wire Line
	2300 15750 2300 15275
Connection ~ 2600 15275
Wire Wire Line
	2750 15075 2600 15075
Wire Wire Line
	2600 15075 2600 14975
Wire Wire Line
	2025 14975 2750 14975
Connection ~ 2600 14975
Wire Wire Line
	2750 14875 1900 14875
Wire Wire Line
	1900 14875 1900 15750
Wire Wire Line
	2025 14975 2025 15900
Wire Wire Line
	1375 15750 5725 15750
Connection ~ 2025 15750
Wire Wire Line
	1375 13550 1375 15750
Connection ~ 1900 15750
Wire Wire Line
	1875 13875 2075 13875
Connection ~ 2075 13875
Wire Wire Line
	1875 13550 2075 13550
Connection ~ 2075 13550
Wire Wire Line
	1375 13550 1575 13550
Wire Wire Line
	1575 13875 1375 13875
Connection ~ 1375 13875
Wire Wire Line
	4600 14225 4250 14225
Wire Wire Line
	4600 14025 4600 14225
Wire Wire Line
	4250 14025 5900 14025
Connection ~ 4600 14025
Wire Wire Line
	4250 14125 4600 14125
Connection ~ 4600 14125
Wire Wire Line
	5300 14075 5300 14025
Connection ~ 5300 14025
Wire Wire Line
	5900 14025 5900 13875
Wire Wire Line
	5725 14075 5725 14025
Connection ~ 5725 14025
Wire Wire Line
	5725 15750 5725 14375
Connection ~ 2300 15750
Wire Wire Line
	5300 14375 5300 15750
Connection ~ 5300 15750
Wire Notes Line
	600  12600 6550 12600
Wire Notes Line
	6550 12600 6550 16675
Wire Notes Line
	6550 16675 600  16675
Wire Notes Line
	600  16675 600  12575
Wire Wire Line
	18250 13325 18150 13325
Wire Wire Line
	18150 13325 18150 13650
Wire Wire Line
	18150 13650 17600 13650
Wire Wire Line
	18050 13225 18250 13225
Wire Wire Line
	18050 13650 18050 13225
Wire Wire Line
	17600 13125 18250 13125
Connection ~ 18050 13650
Wire Wire Line
	18250 12825 17700 12825
Wire Wire Line
	18275 11300 18175 11300
Wire Wire Line
	18175 11300 18175 11625
Wire Wire Line
	18175 11625 17600 11625
Wire Wire Line
	18075 11200 18275 11200
Wire Wire Line
	18075 11625 18075 11200
Wire Wire Line
	17600 11100 18275 11100
Connection ~ 18075 11625
Wire Wire Line
	18275 11000 17725 11000
Wire Wire Line
	18275 10900 17725 10900
Wire Wire Line
	18275 10800 17725 10800
Wire Wire Line
	17950 8700 18225 8700
Wire Wire Line
	18225 8800 17750 8800
Wire Wire Line
	18225 8900 17750 8900
Wire Wire Line
	18225 9000 17750 9000
Wire Wire Line
	17750 9875 18200 9875
Wire Wire Line
	18200 9975 17750 9975
Wire Wire Line
	18200 10075 17750 10075
Wire Wire Line
	10150 3250 10150 3525
Wire Wire Line
	9600 3375 10700 3375
Wire Wire Line
	9875 3375 9875 3250
Connection ~ 10150 3375
Wire Wire Line
	10425 3375 10425 3250
Wire Wire Line
	9600 3375 9600 3250
Connection ~ 9875 3375
Wire Wire Line
	10700 3375 10700 3250
Connection ~ 10425 3375
Wire Notes Line
	9350 3750 10925 3750
Wire Notes Line
	10925 3750 10925 1750
Wire Notes Line
	10925 1750 9350 1750
Wire Notes Line
	9350 1750 9350 3750
Wire Wire Line
	18300 6650 18125 6650
Wire Wire Line
	18125 6650 18125 6750
Wire Wire Line
	18250 12325 18150 12325
Wire Wire Line
	18150 12325 18150 12650
Wire Wire Line
	18150 12650 17600 12650
Wire Wire Line
	18050 12225 18250 12225
Wire Wire Line
	18050 12650 18050 12225
Wire Wire Line
	17625 12125 18250 12125
Connection ~ 18050 12650
Wire Wire Line
	18250 11825 17700 11825
Wire Notes Line
	19200 10575 17500 10575
Wire Notes Line
	17500 10575 17500 14000
Wire Notes Line
	17500 14000 19200 14000
Wire Notes Line
	19200 14000 19200 10575
Wire Notes Line
	19200 10450 17425 10450
Wire Notes Line
	17425 10450 17425 7750
Wire Notes Line
	17425 7750 19175 7750
Wire Notes Line
	19175 7750 19175 10450
Wire Notes Line
	19175 7650 19175 5625
Wire Notes Line
	19175 5625 17925 5625
Wire Notes Line
	17925 5625 17925 7650
Wire Notes Line
	17925 7650 19175 7650
Wire Wire Line
	14150 12375 14150 12450
Wire Wire Line
	14775 12825 14450 12825
Wire Wire Line
	14450 12375 14450 13025
Connection ~ 14450 12375
Wire Wire Line
	14450 13025 14775 13025
Connection ~ 14450 12825
Wire Wire Line
	14050 13225 14775 13225
Wire Wire Line
	14775 13625 14050 13625
Wire Wire Line
	14050 13625 14050 13425
Connection ~ 14050 13425
Wire Wire Line
	16275 13625 16500 13625
Wire Wire Line
	16500 13625 16500 13750
Wire Wire Line
	13775 12700 13775 12375
Connection ~ 14150 12375
Wire Wire Line
	13775 13000 13775 13100
Wire Wire Line
	14050 13225 14050 13050
Wire Wire Line
	14050 13050 13775 13050
Connection ~ 13775 13050
Wire Wire Line
	13775 13400 13775 13425
Connection ~ 13775 13425
Wire Wire Line
	14175 10775 14175 10850
Wire Wire Line
	14800 11225 14475 11225
Wire Wire Line
	14475 10775 14475 11425
Connection ~ 14475 10775
Wire Wire Line
	14475 11425 14800 11425
Connection ~ 14475 11225
Wire Wire Line
	14075 11625 14800 11625
Wire Wire Line
	14800 12025 14075 12025
Wire Wire Line
	14075 12025 14075 11825
Connection ~ 14075 11825
Wire Wire Line
	16300 12025 16525 12025
Wire Wire Line
	16525 12025 16525 12150
Wire Wire Line
	13800 11100 13800 10775
Connection ~ 14175 10775
Wire Wire Line
	13800 11400 13800 11500
Wire Wire Line
	14075 11625 14075 11450
Wire Wire Line
	14075 11450 13800 11450
Connection ~ 13800 11450
Wire Wire Line
	13800 11800 13800 11825
Connection ~ 13800 11825
Wire Wire Line
	18250 11925 17875 11925
Wire Wire Line
	18250 12025 17875 12025
Wire Wire Line
	16300 11625 16425 11625
Wire Wire Line
	16300 11425 16425 11425
Wire Wire Line
	18250 12925 17700 12925
Wire Wire Line
	18250 13025 17700 13025
Wire Wire Line
	16275 13025 16475 13025
Wire Wire Line
	16275 13225 16475 13225
Wire Wire Line
	8650 12700 9250 12700
Wire Wire Line
	16275 12825 16475 12825
Wire Wire Line
	16300 11225 16450 11225
Wire Wire Line
	9250 13450 9400 13450
Wire Wire Line
	9400 13450 9400 13550
Wire Wire Line
	16275 13425 16500 13425
Wire Wire Line
	16300 11825 16425 11825
Wire Wire Line
	14100 6450 14350 6450
Wire Wire Line
	14100 6550 14350 6550
Wire Wire Line
	7575 12675 8175 12675
Wire Wire Line
	8175 13425 8400 13425
Wire Wire Line
	11500 12725 12100 12725
Wire Wire Line
	11750 12625 11750 12725
Connection ~ 11750 12725
Wire Wire Line
	11750 12325 11750 12250
Wire Wire Line
	11750 12250 12125 12250
Wire Wire Line
	12100 13475 12325 13475
Wire Wire Line
	12325 13475 12325 13575
Wire Wire Line
	12100 13375 12375 13375
Wire Wire Line
	12375 13375 12375 13425
Wire Wire Line
	12100 13250 12425 13250
Wire Wire Line
	12425 13250 12425 13300
Wire Wire Line
	10425 12700 11025 12700
Wire Wire Line
	10675 12600 10675 12700
Connection ~ 10675 12700
Wire Wire Line
	10675 12300 10675 12225
Wire Wire Line
	10675 12225 11050 12225
Wire Wire Line
	11025 13450 11250 13450
Wire Wire Line
	11250 13450 11250 13550
Wire Wire Line
	11025 13350 11300 13350
Wire Wire Line
	11300 13350 11300 13400
Wire Wire Line
	11025 13225 11350 13225
Wire Wire Line
	11350 13225 11350 13275
Wire Wire Line
	14425 7650 14100 7650
Wire Wire Line
	14100 7550 14425 7550
Wire Notes Line
	13125 12025 13125 13875
Wire Notes Line
	13125 13875 7075 13875
Wire Notes Line
	7075 13875 7075 12025
Wire Notes Line
	7075 12025 13125 12025
Wire Notes Line
	9975 12025 9975 13875
Wire Notes Line
	16975 10550 16975 14000
Wire Notes Line
	16975 14000 13300 14000
Wire Notes Line
	13125 14000 13125 10550
Wire Notes Line
	13125 10550 16975 10550
Wire Wire Line
	18300 6450 18125 6450
Wire Wire Line
	18300 6550 18125 6550
Wire Wire Line
	14825 9950 14100 9950
Connection ~ 14825 9850
Wire Wire Line
	2250 11500 2450 11500
Wire Wire Line
	2450 11500 2450 11750
Wire Wire Line
	2250 11500 2250 11750
Connection ~ 2350 11500
Wire Wire Line
	2100 11200 2100 11750
Wire Wire Line
	1250 10100 1250 11750
Wire Wire Line
	1225 10500 1250 10500
Connection ~ 1250 10500
Wire Wire Line
	1250 10875 1225 10875
Connection ~ 1250 10875
Wire Wire Line
	850  10500 850  11075
Wire Wire Line
	850  10500 925  10500
Wire Wire Line
	925  10875 850  10875
Connection ~ 850  10875
Wire Wire Line
	4100 9450 3900 9450
Wire Wire Line
	4100 9950 3900 9950
Wire Wire Line
	4100 9850 3900 9850
Wire Wire Line
	4100 9750 3900 9750
Wire Wire Line
	4100 9650 3900 9650
Wire Notes Line
	3275 12100 3275 9850
Wire Notes Line
	3275 9850 650  9850
Wire Notes Line
	650  9850 650  12100
Wire Notes Line
	650  12100 3275 12100
Wire Wire Line
	4100 9250 4100 8850
Wire Wire Line
	4100 8850 3775 8850
Wire Wire Line
	3150 9350 4100 9350
Wire Wire Line
	4100 7250 3675 7250
Wire Wire Line
	4100 7150 3650 7150
Wire Wire Line
	18675 3300 18675 3175
Wire Wire Line
	18875 3175 18875 3750
Wire Wire Line
	18975 3175 18975 3850
Wire Wire Line
	19075 3175 19075 3850
Wire Wire Line
	8400 13425 8400 13525
Wire Notes Line
	20175 1775 20175 4025
Wire Notes Line
	20175 4025 18100 4025
Wire Notes Line
	18100 4025 18100 1750
Wire Notes Line
	18100 1750 20175 1750
Wire Notes Line
	20175 1750 20175 1800
Wire Wire Line
	10700 2825 10700 2950
Wire Wire Line
	10425 2825 10425 2950
Wire Wire Line
	10150 2825 10150 2950
Wire Wire Line
	9875 2825 9875 2950
Wire Wire Line
	9600 2825 9600 2950
Wire Wire Line
	9600 2525 9600 2300
Wire Wire Line
	9875 2525 9875 2300
Wire Wire Line
	10150 2525 10150 2300
Wire Wire Line
	10425 2525 10425 2300
Wire Wire Line
	10700 2525 10700 2300
Wire Wire Line
	3650 5850 4100 5850
Wire Wire Line
	4100 5950 3650 5950
Wire Wire Line
	3650 6750 4100 6750
Wire Wire Line
	3650 6650 4100 6650
Wire Wire Line
	3925 6550 4100 6550
Wire Wire Line
	14275 7350 14100 7350
Wire Wire Line
	14275 7250 14100 7250
Wire Wire Line
	14525 7150 14100 7150
Wire Wire Line
	14525 7050 14100 7050
Wire Wire Line
	14200 2200 14200 2275
Wire Wire Line
	14200 2275 13925 2275
Wire Wire Line
	13925 2275 13925 1925
Wire Wire Line
	14300 2325 14300 2200
Wire Wire Line
	13375 2325 14300 2325
Wire Wire Line
	14400 2200 14400 2475
Wire Wire Line
	14500 2200 14500 2475
Wire Wire Line
	4100 6150 3875 6150
Wire Wire Line
	4100 6050 3875 6050
Wire Notes Line
	15400 1750 15400 2825
Wire Notes Line
	15400 2825 13125 2825
Wire Notes Line
	13125 2825 13125 1750
Wire Notes Line
	13125 1750 15400 1750
Wire Wire Line
	13800 10775 14475 10775
Wire Wire Line
	13775 12375 14450 12375
Wire Wire Line
	14100 6850 14925 6850
Wire Wire Line
	14100 6950 14925 6950
Wire Wire Line
	14100 5850 14875 5850
Wire Wire Line
	14100 5950 14875 5950
Wire Wire Line
	14100 6050 14875 6050
Wire Wire Line
	12100 12725 12100 13475
Connection ~ 12100 13250
Connection ~ 12100 13375
Wire Wire Line
	11025 12700 11025 13450
Connection ~ 11025 13350
Connection ~ 11025 13225
Wire Wire Line
	9250 12700 9250 13450
Wire Wire Line
	8175 12675 8175 13425
Wire Wire Line
	5450 1675 5450 1450
Wire Wire Line
	5925 1675 5925 1450
Wire Wire Line
	2125 2025 1425 2025
Wire Wire Line
	3525 1175 4850 1175
Wire Wire Line
	3375 1475 3375 1925
Connection ~ 3375 1925
Wire Wire Line
	1850 3675 3200 3675
Wire Wire Line
	5150 3175 5150 3125
Connection ~ 5150 3125
Wire Wire Line
	5150 3575 6525 3575
Wire Wire Line
	5150 3575 5150 3475
Wire Wire Line
	6200 3125 7450 3125
Wire Wire Line
	6525 3125 6525 3150
Connection ~ 6525 3125
Wire Wire Line
	13225 11825 14800 11825
Wire Wire Line
	13825 2175 13925 2175
Connection ~ 13925 2175
Wire Wire Line
	13825 1975 13925 1975
Connection ~ 13925 1975
Wire Wire Line
	13525 1975 13525 2325
Connection ~ 13525 2325
Connection ~ 13525 2175
Text Notes 5925 14275 0    118  ~ 0
TANTAL!!
$Comp
L C C21
U 1 1 581EC015
P 17775 13375
F 0 "C21" H 17800 13475 50  0000 L CNN
F 1 "100n" H 17800 13275 50  0000 L CNN
F 2 "Capacitors_SMD:C_0805_HandSoldering" H 17813 13225 50  0001 C CNN
F 3 "" H 17775 13375 50  0000 C CNN
	1    17775 13375
	1    0    0    -1  
$EndComp
$Comp
L C C23
U 1 1 581EC8ED
P 17800 12375
F 0 "C23" H 17825 12475 50  0000 L CNN
F 1 "100n" H 17825 12275 50  0000 L CNN
F 2 "Capacitors_SMD:C_0805_HandSoldering" H 17838 12225 50  0001 C CNN
F 3 "" H 17800 12375 50  0000 C CNN
	1    17800 12375
	1    0    0    -1  
$EndComp
$Comp
L C C22
U 1 1 581EC9C8
P 17800 11375
F 0 "C22" H 17825 11475 50  0000 L CNN
F 1 "100n" H 17825 11275 50  0000 L CNN
F 2 "Capacitors_SMD:C_0805_HandSoldering" H 17838 11225 50  0001 C CNN
F 3 "" H 17800 11375 50  0000 C CNN
	1    17800 11375
	1    0    0    -1  
$EndComp
Wire Wire Line
	17800 11225 17800 11100
Connection ~ 17800 11100
Wire Wire Line
	17800 11525 17800 11625
Connection ~ 17800 11625
Wire Wire Line
	17800 12225 17800 12125
Connection ~ 17800 12125
Wire Wire Line
	17800 12525 17800 12650
Connection ~ 17800 12650
Wire Wire Line
	17775 13225 17775 13125
Connection ~ 17775 13125
Wire Wire Line
	17775 13525 17775 13650
Connection ~ 17775 13650
$Comp
L C C27
U 1 1 581F37AF
P 19025 8675
F 0 "C27" H 19050 8775 50  0000 L CNN
F 1 "100n" H 19050 8575 50  0000 L CNN
F 2 "Capacitors_SMD:C_0805_HandSoldering" H 19063 8525 50  0001 C CNN
F 3 "" H 19025 8675 50  0000 C CNN
	1    19025 8675
	1    0    0    -1  
$EndComp
$Comp
L C C26
U 1 1 581F42E7
P 18775 8675
F 0 "C26" H 18800 8775 50  0000 L CNN
F 1 "100n" H 18800 8575 50  0000 L CNN
F 2 "Capacitors_SMD:C_0805_HandSoldering" H 18813 8525 50  0001 C CNN
F 3 "" H 18775 8675 50  0000 C CNN
	1    18775 8675
	1    0    0    -1  
$EndComp
Wire Wire Line
	19025 8375 19025 8525
Wire Wire Line
	17950 8375 19025 8375
Wire Wire Line
	18775 8375 18775 8525
Wire Wire Line
	18900 8250 18900 8375
Connection ~ 18900 8375
Connection ~ 18775 8375
Wire Wire Line
	18775 8825 18775 8925
Wire Wire Line
	18775 8925 19025 8925
Wire Wire Line
	19025 8925 19025 8825
Wire Wire Line
	18900 9200 18900 8925
Connection ~ 18900 8925
Wire Wire Line
	18625 9350 18625 8375
Wire Wire Line
	17975 9350 18625 9350
Connection ~ 18625 8375
$Comp
L R R13
U 1 1 581F757F
P 2600 8350
F 0 "R13" V 2680 8350 50  0000 C CNN
F 1 "10k" V 2600 8350 50  0000 C CNN
F 2 "Resistors_SMD:R_0805_HandSoldering" V 2530 8350 50  0001 C CNN
F 3 "" H 2600 8350 50  0000 C CNN
	1    2600 8350
	-1   0    0    1   
$EndComp
$Comp
L +3.3V #PWR050
U 1 1 581F875D
P 2600 8075
F 0 "#PWR050" H 2600 7925 50  0001 C CNN
F 1 "+3.3V" H 2600 8215 50  0000 C CNN
F 2 "" H 2600 8075 50  0000 C CNN
F 3 "" H 2600 8075 50  0000 C CNN
	1    2600 8075
	1    0    0    -1  
$EndComp
Wire Wire Line
	2600 8075 2600 8200
Wire Wire Line
	18775 3175 18775 3375
Wire Wire Line
	18775 3375 18150 3375
Wire Wire Line
	18150 3375 18150 3200
Wire Wire Line
	18875 3750 18150 3750
Wire Wire Line
	18150 3750 18150 3800
$Comp
L C C24
U 1 1 58200B19
P 18250 3575
F 0 "C24" H 18275 3675 50  0000 L CNN
F 1 "100n" H 18275 3475 50  0000 L CNN
F 2 "Capacitors_SMD:C_0805_HandSoldering" H 18288 3425 50  0001 C CNN
F 3 "" H 18250 3575 50  0000 C CNN
	1    18250 3575
	-1   0    0    1   
$EndComp
$Comp
L C C25
U 1 1 5820159D
P 18525 3575
F 0 "C25" H 18550 3675 50  0000 L CNN
F 1 "100n" H 18550 3475 50  0000 L CNN
F 2 "Capacitors_SMD:C_0805_HandSoldering" H 18563 3425 50  0001 C CNN
F 3 "" H 18525 3575 50  0000 C CNN
	1    18525 3575
	-1   0    0    1   
$EndComp
Wire Wire Line
	18250 3425 18250 3375
Connection ~ 18250 3375
Wire Wire Line
	18525 3425 18525 3375
Connection ~ 18525 3375
Wire Wire Line
	18250 3725 18250 3750
Connection ~ 18250 3750
Wire Wire Line
	18525 3725 18525 3750
Connection ~ 18525 3750
Wire Notes Line
	13325 14000 13125 14000
$Comp
L R R7
U 1 1 581FDEE5
P 10700 2675
F 0 "R7" V 10780 2675 50  0000 C CNN
F 1 "100" V 10700 2675 50  0000 C CNN
F 2 "Resistors_SMD:R_0805_HandSoldering" V 10630 2675 50  0001 C CNN
F 3 "" H 10700 2675 50  0000 C CNN
	1    10700 2675
	1    0    0    -1  
$EndComp
$Comp
L R R5
U 1 1 581FDDFA
P 10425 2675
F 0 "R5" V 10505 2675 50  0000 C CNN
F 1 "100" V 10425 2675 50  0000 C CNN
F 2 "Resistors_SMD:R_0805_HandSoldering" V 10355 2675 50  0001 C CNN
F 3 "" H 10425 2675 50  0000 C CNN
	1    10425 2675
	1    0    0    -1  
$EndComp
$Comp
L R R4
U 1 1 581FDD1C
P 10150 2675
F 0 "R4" V 10230 2675 50  0000 C CNN
F 1 "100" V 10150 2675 50  0000 C CNN
F 2 "Resistors_SMD:R_0805_HandSoldering" V 10080 2675 50  0001 C CNN
F 3 "" H 10150 2675 50  0000 C CNN
	1    10150 2675
	1    0    0    -1  
$EndComp
$Comp
L C C28
U 1 1 58238C00
P 13325 12025
F 0 "C28" H 13350 12125 50  0000 L CNN
F 1 "100n" H 13350 11925 50  0000 L CNN
F 2 "Capacitors_SMD:C_0805_HandSoldering" H 13363 11875 50  0001 C CNN
F 3 "" H 13325 12025 50  0000 C CNN
	1    13325 12025
	-1   0    0    1   
$EndComp
$Comp
L C C29
U 1 1 58238DD2
P 13475 13225
F 0 "C29" H 13500 13325 50  0000 L CNN
F 1 "100n" H 13500 13125 50  0000 L CNN
F 2 "Capacitors_SMD:C_0805_HandSoldering" H 13513 13075 50  0001 C CNN
F 3 "" H 13475 13225 50  0000 C CNN
	1    13475 13225
	-1   0    0    1   
$EndComp
$Comp
L C C15
U 1 1 58239393
P 13250 13225
F 0 "C15" H 13275 13325 50  0000 L CNN
F 1 "100n" H 13275 13125 50  0000 L CNN
F 2 "Capacitors_SMD:C_0805_HandSoldering" H 13288 13075 50  0001 C CNN
F 3 "" H 13250 13225 50  0000 C CNN
	1    13250 13225
	-1   0    0    1   
$EndComp
$Comp
L GND #PWR051
U 1 1 582396A7
P 13250 12600
F 0 "#PWR051" H 13250 12350 50  0001 C CNN
F 1 "GND" H 13250 12450 50  0000 C CNN
F 2 "" H 13250 12600 50  0000 C CNN
F 3 "" H 13250 12600 50  0000 C CNN
	1    13250 12600
	1    0    0    -1  
$EndComp
Wire Wire Line
	13475 13375 13475 13425
Connection ~ 13475 13425
Wire Wire Line
	13250 13375 13250 13625
Connection ~ 13250 13425
Wire Wire Line
	13475 12250 13475 13075
Wire Wire Line
	13475 12600 13250 12600
Wire Wire Line
	13250 13075 13250 12900
Wire Wire Line
	13250 12900 13475 12900
Connection ~ 13475 12900
Wire Wire Line
	13325 12250 13550 12250
Wire Wire Line
	13550 12250 13550 12175
Connection ~ 13475 12600
Wire Wire Line
	13325 12175 13325 12250
Connection ~ 13475 12250
Wire Wire Line
	13550 11875 13550 11825
Connection ~ 13550 11825
Wire Wire Line
	13325 11875 13325 11825
Connection ~ 13325 11825
Wire Wire Line
	13225 11825 13225 11625
Wire Wire Line
	13250 13425 14775 13425
$Comp
L +3.3V #PWR052
U 1 1 5823BE18
P 13250 13625
F 0 "#PWR052" H 13250 13475 50  0001 C CNN
F 1 "+3.3V" H 13250 13765 50  0000 C CNN
F 2 "" H 13250 13625 50  0000 C CNN
F 3 "" H 13250 13625 50  0000 C CNN
	1    13250 13625
	-1   0    0    1   
$EndComp
$Comp
L GND #PWR053
U 1 1 5823EC35
P 18075 8500
F 0 "#PWR053" H 18075 8250 50  0001 C CNN
F 1 "GND" H 18075 8350 50  0000 C CNN
F 2 "" H 18075 8500 50  0000 C CNN
F 3 "" H 18075 8500 50  0000 C CNN
	1    18075 8500
	1    0    0    -1  
$EndComp
Wire Wire Line
	18225 8600 18225 8475
Wire Wire Line
	18225 8475 18075 8475
Wire Wire Line
	18075 8475 18075 8500
Wire Wire Line
	17950 8700 17950 8375
Wire Wire Line
	18200 9675 18200 9525
Wire Wire Line
	18200 9525 18100 9525
Wire Wire Line
	17975 9350 17975 9775
Wire Wire Line
	17975 9775 18200 9775
NoConn ~ 14525 7050
NoConn ~ 14875 6050
$EndSCHEMATC
